%YAML 1.1
%TAG !u! tag:unity3d.com,2011:
--- !u!114 &11400000
MonoBehaviour:
  m_ObjectHideFlags: 0
  m_CorrespondingSourceObject: {fileID: 0}
  m_PrefabInstance: {fileID: 0}
  m_PrefabAsset: {fileID: 0}
  m_GameObject: {fileID: 0}
  m_Enabled: 1
  m_EditorHideFlags: 0
  m_Script: {fileID: 11500000, guid: 84a92b25f83d49b9bc132d206b370281, type: 3}
  m_Name: Font Sprite Atlas
  m_EditorClassIdentifier: 
  hashCode: 1854178225
  material: {fileID: 1566159663264881748}
  materialHashCode: 0
  m_Version: 1.1.0
  m_FaceInfo:
    m_FaceIndex: 0
    m_FamilyName: 
    m_StyleName: 
    m_PointSize: 0
    m_Scale: 0
    m_UnitsPerEM: 0
    m_LineHeight: 0
    m_AscentLine: 0
    m_CapLine: 0
    m_MeanLine: 0
    m_Baseline: 0
    m_DescentLine: 0
    m_SuperscriptOffset: 0
    m_SuperscriptSize: 0
    m_SubscriptOffset: 0
    m_SubscriptSize: 0
    m_UnderlineOffset: 0
    m_UnderlineThickness: 0
    m_StrikethroughOffset: 0
    m_StrikethroughThickness: 0
    m_TabWidth: 0
  spriteSheet: {fileID: 2800000, guid: 2b28278ab9577864bbb7301287a2e5f2, type: 3}
  m_SpriteCharacterTable:
  - m_ElementType: 2
    m_Unicode: 65534
    m_GlyphIndex: 1
    m_Scale: 1
    m_Name: diff_x
    m_HashCode: -483490038
  - m_ElementType: 2
    m_Unicode: 65534
    m_GlyphIndex: 0
    m_Scale: 1
    m_Name: ura
    m_HashCode: 130086
  - m_ElementType: 2
    m_Unicode: 65534
    m_GlyphIndex: 2
    m_Scale: 1
    m_Name: danmaku
    m_HashCode: 921023065
  - m_ElementType: 2
    m_Unicode: 65534
    m_GlyphIndex: 3
    m_Scale: 1
    m_Name: rescore
    m_HashCode: -1634019521
  - m_ElementType: 2
    m_Unicode: 65534
    m_GlyphIndex: 4
    m_Scale: 1
    m_Name: full
    m_HashCode: 3716051
  m_SpriteGlyphTable:
  - m_Index: 0
    m_Metrics:
      m_Width: 64
      m_Height: 64
      m_HorizontalBearingX: -0
      m_HorizontalBearingY: 53
      m_HorizontalAdvance: 64
    m_GlyphRect:
      m_X: 4
      m_Y: 76
      m_Width: 64
      m_Height: 64
    m_Scale: 1
    m_AtlasIndex: 0
    m_ClassDefinitionType: 0
    sprite: {fileID: 5600629670580459618, guid: 1a7d3fa07044b2f459004af138be652c, type: 3}
  - m_Index: 1
    m_Metrics:
      m_Width: 64
      m_Height: 64
      m_HorizontalBearingX: -0
      m_HorizontalBearingY: 64
      m_HorizontalAdvance: 64
    m_GlyphRect:
      m_X: 76
      m_Y: 76
      m_Width: 64
      m_Height: 64
    m_Scale: 1
    m_AtlasIndex: 0
    m_ClassDefinitionType: 0
    sprite: {fileID: -35274553378737574, guid: 1a7d3fa07044b2f459004af138be652c, type: 3}
  - m_Index: 2
    m_Metrics:
      m_Width: 64
      m_Height: 64
      m_HorizontalBearingX: -0
      m_HorizontalBearingY: 53
      m_HorizontalAdvance: 64
    m_GlyphRect:
      m_X: 4
      m_Y: 4
      m_Width: 64
      m_Height: 64
    m_Scale: 1
    m_AtlasIndex: 0
    m_ClassDefinitionType: 0
    sprite: {fileID: -3366333723206234690, guid: 1a7d3fa07044b2f459004af138be652c, type: 3}
  - m_Index: 3
    m_Metrics:
      m_Width: 64
      m_Height: 64
      m_HorizontalBearingX: -0
      m_HorizontalBearingY: 53
      m_HorizontalAdvance: 64
    m_GlyphRect:
      m_X: 76
      m_Y: 4
      m_Width: 64
      m_Height: 64
    m_Scale: 1
    m_AtlasIndex: 0
    m_ClassDefinitionType: 0
    sprite: {fileID: 7061549428117649295, guid: 1a7d3fa07044b2f459004af138be652c, type: 3}
  - m_Index: 4
    m_Metrics:
      m_Width: 64
      m_Height: 64
      m_HorizontalBearingX: -0
      m_HorizontalBearingY: 53
      m_HorizontalAdvance: 64
    m_GlyphRect:
      m_X: 148
      m_Y: 4
      m_Width: 64
      m_Height: 64
    m_Scale: 1
    m_AtlasIndex: 0
    m_ClassDefinitionType: 0
    sprite: {fileID: -2348216440365927709, guid: 1a7d3fa07044b2f459004af138be652c, type: 3}
  spriteInfoList: []
  fallbackSpriteAssets: []
--- !u!21 &1566159663264881748
Material:
  serializedVersion: 8
  m_ObjectHideFlags: 1
  m_CorrespondingSourceObject: {fileID: 0}
  m_PrefabInstance: {fileID: 0}
  m_PrefabAsset: {fileID: 0}
  m_Name: TextMeshPro/Sprite
  m_Shader: {fileID: 4800000, guid: cf81c85f95fe47e1a27f6ae460cf182c, type: 3}
  m_ValidKeywords: []
  m_InvalidKeywords: []
  m_LightmapFlags: 4
  m_EnableInstancingVariants: 0
  m_DoubleSidedGI: 0
  m_CustomRenderQueue: -1
  stringTagMap: {}
  disabledShaderPasses: []
  m_SavedProperties:
    serializedVersion: 3
    m_TexEnvs:
    - _MainTex:
        m_Texture: {fileID: 2800000, guid: 2b28278ab9577864bbb7301287a2e5f2, type: 3}
        m_Scale: {x: 1, y: 1}
        m_Offset: {x: 0, y: 0}
    m_Ints: []
    m_Floats:
    - _ColorMask: 15
    - _CullMode: 0
    - _Stencil: 0
    - _StencilComp: 8
    - _StencilOp: 0
    - _StencilReadMask: 255
    - _StencilWriteMask: 255
    - _UseUIAlphaClip: 0
    m_Colors:
    - _ClipRect: {r: -32767, g: -32767, b: 32767, a: 32767}
    - _Color: {r: 1, g: 1, b: 1, a: 1}
  m_BuildTextureStacks: []
