%YAML 1.1
%TAG !u! tag:unity3d.com,2011:
--- !u!114 &11400000
MonoBehaviour:
  m_ObjectHideFlags: 0
  m_CorrespondingSourceObject: {fileID: 0}
  m_PrefabInstance: {fileID: 0}
  m_PrefabAsset: {fileID: 0}
  m_GameObject: {fileID: 0}
  m_Enabled: 1
  m_EditorHideFlags: 0
  m_Script: {fileID: 11500000, guid: 988c65695537b6e4198074e520a5e9d4, type: 3}
  m_Name: FarAboveCameraSettings
  m_EditorClassIdentifier: 
  _position: {x: 0, y: 5, z: 2}
  _rotation: {x: 90, y: 0, z: 0}
  _fieldOfView: 60
